<svg width="79" height="15" viewBox="0 0 79 15" fill="none" xmlns="http://www.w3.org/2000/svg">
<path d="M22.4362 1.60717V13.3928C22.4362 14.2801 21.5987 15 20.5665 15H1.86967C0.837458 15 0 14.2801 0 13.3928V1.60717C0 0.719862 0.837458 0 1.86967 0H20.5665C21.5987 0 22.4362 0.719904 22.4362 1.60717Z" fill="#0353A5"/>
<path d="M19.3043 4.82166H18.0928C17.7189 4.82166 17.4345 4.91544 17.2748 5.25357L14.9493 10.0247H16.5932C16.5932 10.0247 16.862 9.38188 16.9203 9.24462H18.9303C18.9769 9.42875 19.1172 10.0247 19.1172 10.0247H20.5663L19.3043 4.82166ZM17.3722 8.17988C17.5008 7.88196 17.9954 6.72347 17.9954 6.72347C17.9876 6.7335 18.124 6.41876 18.2019 6.22456L18.3109 6.67325C18.3109 6.67325 18.607 7.91877 18.6732 8.17992H17.3722V8.17988Z" fill="white"/>
<path d="M6.74633 4.82166L5.21555 8.37078L5.04801 7.65087L4.50266 5.26024C4.41306 4.92878 4.13651 4.83503 3.79372 4.82166H1.27365L1.24634 4.92546C1.86177 5.05942 2.41102 5.25361 2.89008 5.498L4.28459 10.0181H5.93999L8.40168 4.8217H6.74633V4.82166Z" fill="white"/>
<path d="M9.0331 4.82166L8.05542 10.0248H9.61746L10.599 4.82166H9.0331Z" fill="white"/>
<path d="M13.7537 6.90795C13.2045 6.67023 12.8695 6.50949 12.8695 6.26511C12.8773 6.04412 13.1538 5.81642 13.7693 5.81642C14.2796 5.80636 14.6535 5.91021 14.9339 6.01393L15.0742 6.07087L15.2884 4.94588C14.9806 4.84203 14.4899 4.72485 13.8861 4.72485C12.3398 4.72485 11.253 5.43473 11.2452 6.44585C11.2335 7.1925 12.0242 7.60772 12.6163 7.85877C13.2201 8.11318 13.4265 8.28067 13.4265 8.50497C13.4187 8.85324 12.9357 9.01394 12.4877 9.01394C11.8645 9.01394 11.5295 8.93018 11.0194 8.7361L10.8128 8.65229L10.5947 9.8208C10.9608 9.96481 11.6386 10.0921 12.3397 10.0988C13.9835 10.1021 15.0547 9.40225 15.0663 8.32419C15.0742 7.73161 14.6536 7.27957 13.7537 6.90795Z" fill="white"/>
<g clip-path="url(#clip0)">
<path d="M49.112 0H29.0689C28.4081 0 27.8723 0.570338 27.8723 1.27389V13.7261C27.8723 14.4297 28.4081 15 29.0689 15H49.112C49.7728 15 50.3086 14.4297 50.3086 13.7261V1.27389C50.3086 0.570338 49.7728 0 49.112 0Z" fill="black"/>
<path d="M34.4876 13.4291V12.6377C34.4876 12.3342 34.3141 12.1365 34.0293 12.1365C33.8797 12.1365 33.7197 12.1893 33.6081 12.3594C33.5213 12.2142 33.3987 12.1365 33.2117 12.1365C33.0705 12.13 32.9357 12.1993 32.8527 12.3212V12.1619H32.6173V13.4282H32.8527V12.7037C32.8527 12.4807 32.9766 12.374 33.1501 12.374C33.3236 12.374 33.4226 12.4928 33.4226 12.7037V13.4291H33.6581V12.7037C33.6581 12.4807 33.7819 12.374 33.9554 12.374C34.1289 12.374 34.2279 12.4928 34.2279 12.7037V13.4291H34.4876ZM38.3532 12.176H37.9194V11.7938H37.6846V12.176H37.4369V12.3989H37.6846V12.9938C37.6846 13.2839 37.7836 13.4556 38.081 13.4556C38.1936 13.4531 38.304 13.4214 38.4026 13.3632L38.3281 13.1403C38.2612 13.1848 38.1837 13.2077 38.1049 13.2062C37.9811 13.2062 37.9191 13.1269 37.9191 12.9951V12.3887H38.3529V12.1775L38.3532 12.176ZM40.5585 12.1365C40.4281 12.1334 40.3057 12.2035 40.2364 12.3212V12.1619H40.0009V13.4282H40.2364V12.717C40.2364 12.5059 40.3354 12.374 40.4966 12.374C40.551 12.3764 40.605 12.3853 40.6576 12.4005L40.7321 12.1629C40.6752 12.1476 40.6171 12.1388 40.5585 12.1365ZM37.2257 12.2683C37.1019 12.176 36.9284 12.1365 36.7426 12.1365C36.4452 12.1365 36.2595 12.2817 36.2595 12.5323C36.2595 12.7435 36.3959 12.8619 36.6558 12.9017L36.7797 12.9148C36.9161 12.9412 37.0028 12.9941 37.0028 13.06C37.0028 13.1524 36.9038 13.2193 36.7178 13.2193C36.5757 13.2224 36.4365 13.1761 36.3214 13.0874L36.1975 13.2852C36.371 13.417 36.5816 13.4444 36.7061 13.4444C37.0531 13.4444 37.2389 13.2731 37.2389 13.0355C37.2389 12.8126 37.0893 12.7059 36.8299 12.6661L36.7061 12.653C36.5945 12.64 36.4967 12.6002 36.4967 12.5212C36.4967 12.4288 36.5957 12.3619 36.7321 12.3619C36.8817 12.3619 37.0295 12.4279 37.104 12.4674L37.2257 12.2683ZM40.8188 12.796C40.8188 13.1782 41.0542 13.4556 41.4383 13.4556C41.6119 13.4556 41.7357 13.4161 41.8595 13.3103L41.7357 13.1126C41.648 13.1882 41.5389 13.23 41.4261 13.2314C41.2167 13.2314 41.0542 13.06 41.0542 12.8094C41.0542 12.5588 41.2146 12.3887 41.4261 12.3887C41.5389 12.39 41.648 12.4319 41.7357 12.5075L41.8595 12.3097C41.7357 12.2043 41.6119 12.1645 41.4383 12.1645C41.0665 12.1381 40.8188 12.4151 40.8188 12.7976V12.796ZM39.1585 12.1365C38.8115 12.1365 38.5761 12.4002 38.5761 12.796C38.5761 13.1919 38.8238 13.4556 39.1831 13.4556C39.3578 13.4595 39.5285 13.399 39.6662 13.2842L39.5423 13.0995C39.4428 13.1816 39.3212 13.2278 39.1953 13.2314C39.0344 13.2314 38.8609 13.126 38.8363 12.9017H39.7161V12.7963C39.7161 12.4005 39.493 12.1368 39.1585 12.1368V12.1365ZM39.1463 12.374C39.3198 12.374 39.4436 12.4928 39.4559 12.6906H38.8118C38.8489 12.5059 38.9614 12.374 39.1463 12.374ZM35.9373 12.796V12.1629H35.7018V12.3221C35.6151 12.2033 35.4924 12.1374 35.3177 12.1374C34.9833 12.1374 34.7353 12.4145 34.7353 12.797C34.7353 13.1795 34.983 13.4565 35.3177 13.4565C35.4912 13.4565 35.6151 13.3906 35.7018 13.2718V13.431H35.9373V12.796ZM34.9833 12.796C34.9833 12.5584 35.1197 12.374 35.3551 12.374C35.5783 12.374 35.7141 12.5588 35.7141 12.796C35.7141 13.0467 35.5645 13.218 35.3551 13.218C35.1197 13.231 34.9833 13.0333 34.9833 12.796ZM44.1397 12.1365C44.0092 12.1334 43.8869 12.2035 43.8175 12.3212V12.1619H43.5821V13.4282H43.8172V12.717C43.8172 12.5059 43.9162 12.374 44.0774 12.374C44.1319 12.3764 44.1858 12.3853 44.2384 12.4005L44.3129 12.1629C44.2561 12.1476 44.1979 12.1388 44.1394 12.1365H44.1397ZM43.2228 12.796V12.1629H42.9873V12.3221C42.9006 12.2033 42.7779 12.1374 42.6032 12.1374C42.2688 12.1374 42.0208 12.4145 42.0208 12.797C42.0208 13.1795 42.2685 13.4565 42.6032 13.4565C42.7767 13.4565 42.9006 13.3906 42.9873 13.2718V13.431H43.2228V12.796ZM42.2688 12.796C42.2688 12.5584 42.4052 12.374 42.6406 12.374C42.8638 12.374 42.9996 12.5588 42.9996 12.796C42.9996 13.0467 42.85 13.218 42.6406 13.218C42.4052 13.231 42.2688 13.0333 42.2688 12.796ZM45.6142 12.796V11.6616H45.3787V12.3212C45.292 12.2024 45.1693 12.1365 44.9946 12.1365C44.6602 12.1365 44.4122 12.4135 44.4122 12.796C44.4122 13.1785 44.6599 13.4556 44.9946 13.4556C45.1681 13.4556 45.292 13.3896 45.3787 13.2709V13.4301H45.6142V12.796ZM44.6602 12.796C44.6602 12.5584 44.7966 12.374 45.032 12.374C45.2552 12.374 45.391 12.5588 45.391 12.796C45.391 13.0467 45.2414 13.218 45.032 13.218C44.7963 13.2314 44.6599 13.0336 44.6599 12.796H44.6602Z" fill="white"/>
<path d="M41.2524 2.5603H36.953V10.0259H41.2524V2.5603Z" fill="#FF5F00"/>
<path d="M37.3868 6.29328C37.3871 4.83827 38.0124 3.46327 39.0842 2.56048C37.2556 1.02986 34.629 1.25235 33.0508 3.07156C31.4725 4.89077 31.4725 7.69579 33.0508 9.515C34.629 11.3342 37.2556 11.5567 39.0842 10.0261C38.0124 9.12329 37.3871 7.74829 37.3868 6.29328Z" fill="#EB001B"/>
<path d="M46.3077 6.29276C46.3089 8.10953 45.3353 9.76748 43.8007 10.5621C42.266 11.3567 40.4398 11.1483 39.0981 10.0256C40.1703 9.123 40.7956 7.74786 40.7956 6.29276C40.7956 4.83766 40.1703 3.46253 39.0981 2.55996C40.4398 1.43721 42.266 1.22886 43.8007 2.02345C45.3353 2.81805 46.3089 4.47599 46.3077 6.29276Z" fill="#F79E1B"/>
</g>
<path fill-rule="evenodd" clip-rule="evenodd" d="M77.1647 0H56.8847C56.088 0 55.4362 0.642857 55.4362 1.42857V13.5714C55.4362 14.3571 56.088 15 56.8847 15H77.1647C77.9614 15 78.6133 14.3571 78.6133 13.5714V1.42857C78.6133 0.642857 77.9614 0 77.1647 0Z" fill="#3498D8"/>
<path fill-rule="evenodd" clip-rule="evenodd" d="M60.2884 7.71427H61.4473L60.8678 6.28571L60.2884 7.71427ZM76.44 5H73.4704L72.7461 5.78571L72.0943 5H65.793L65.2136 6.28571L64.6341 5H62.0991V5.57142L61.8094 5H59.6366L57.5361 9.99997H60.0711L60.3608 9.21426H61.0851L61.3748 9.99997H64.1996V9.42854L64.4168 9.99997H65.8654L66.0827 9.35712V9.99997H71.877L72.6013 9.21426L73.2531 9.99997H76.2227L74.3396 7.49998L76.44 5ZM67.6761 9.28569H66.8794V6.49999L65.6481 9.28569H64.9238L63.6926 6.49999V9.28569H62.0267L61.737 8.49998H59.9987L59.709 9.28569H58.7674L60.2884 5.71428H61.5197L62.8958 9.0714V5.71428H64.272L65.3584 8.14284L66.3724 5.71428H67.7486V9.28569H67.6761ZM74.8466 9.28569H73.7601L72.8186 8.07141L71.7321 9.28569H68.4728V5.71428H71.8046L72.8186 6.85713L73.905 5.71428H74.919L73.3256 7.49998L74.8466 9.28569ZM69.2696 6.42856V7.07142H71.0803V7.7857H69.2696V8.49998H71.2976L72.2391 7.42856L71.37 6.42856H69.2696Z" fill="white"/>
<defs>
<clipPath id="clip0">
<rect width="23" height="15" fill="white" transform="translate(27.4362)"/>
</clipPath>
</defs>
</svg>
